"cat_sia","const_period","avg_q_h_kwh_m2","avg_q_ww_kwh_m2"
1,"0-1918",82.1690857821511,32.0512820555556
1,"1919-1945",84.3611133064806,32.0512820555556
1,"1946-1960",89.6402354031133,32.0512820555556
1,"1961-1970",87.4045268720881,32.0512820555556
1,"1971-1980",89.060160166285,32.0512820555556
1,"1981-1990",78.3555444517761,32.0512820555556
1,"1991-2000",77.1550742452169,32.0512820555556
1,"2001-2010",60.8110578460825,32.0512820555556
1,"2011-2020",35.3702600323945,32.0512820555556
1,"Inconnu",85.325004292365,32.0512820555556
2,"0-1918",129.344731126736,21.3675213666667
2,"1919-1945",141.593771759505,21.3675213666667
2,"1946-1960",143.152446533549,21.3675213666667
2,"1961-1970",133.833489169883,21.3675213666666
2,"1971-1980",119.109351628518,21.3675213666667
2,"1981-1990",107.75946614443,21.3675213666667
2,"1991-2000",100.381630456271,21.3675213666666
2,"2001-2010",123.907884318138,21.3675213666668
2,"2011-2020",80.7431586017214,21.3675213666667
2,"Inconnu",99.1796635000417,21.3675213666667
3,"0-1918",81.2814017755311,10.6837606833333
3,"1919-1945",67.5123635225194,10.6837606833333
3,"1946-1960",83.5334716950664,10.6837606833333
3,"1961-1970",92.3162533612081,10.6837606833333
3,"1971-1980",82.2501215826386,10.6837606833333
3,"1981-1990",67.2344156047631,10.6837606833333
3,"1991-2000",70.7134888549453,10.6837606833333
3,"2001-2010",44.5680387473403,10.6837606833333
3,"2011-2020",54.0529989013722,10.6837606833333
3,"Inconnu",66.9164839987164,10.6837606833333
4,"0-1918",81.9888862905442,10.6837606833333
4,"1919-1945",97.9563006534986,10.6837606833333
4,"1946-1960",97.08222976704,10.6837606833333
4,"1961-1970",85.6820487912255,10.6837606833333
4,"1971-1980",90.5755182730575,10.6837606833333
4,"1981-1990",78.5020667497328,10.6837606833333
4,"1991-2000",46.7711188829169,10.6837606833333
4,"2001-2010",50.5094483002914,10.6837606833333
4,"2011-2020",63.3396266780403,10.6837606833333
4,"Inconnu",60.3070936117231,10.6837606833333
5,"0-1918",77.525486305515,10.6837606833333
5,"1919-1945",88.4939309050864,10.6837606833333
5,"1946-1960",59.8446772004919,10.6837606833333
5,"1961-1970",70.8349103854311,10.6837606833333
5,"1971-1980",78.1207215553808,10.6837606833333
5,"1981-1990",69.9451021082378,10.6837606833333
5,"1991-2000",63.6596582986983,10.6837606833333
5,"2001-2010",34.427729284715,10.6837606833333
5,"2011-2020",61.3729788060453,10.6837606833333
5,"Inconnu",79.1331781035453,10.6837606833333
6,"0-1918",68.5931999633444,85.4700854722222
6,"1919-1945",68.5931999633444,85.4700854722222
6,"1946-1960",68.5931999633444,85.4700854722222
6,"1961-1970",68.5931999633444,85.4700854722222
6,"1971-1980",68.5931999633444,85.4700854722222
6,"1981-1990",68.5931999633444,85.4700854722222
6,"1991-2000",68.5931999633444,85.4700854722222
6,"2001-2010",68.5931999633444,85.4700854722222
6,"2011-2020",68.5931999633444,85.4700854722222
6,"Inconnu",68.5931999633444,85.4700854722222
7,"0-1918",75.631941621735,21.3675213666667
7,"1919-1945",75.631941621735,21.3675213666667
7,"1946-1960",75.631941621735,21.3675213666667
7,"1961-1970",75.631941621735,21.3675213666667
7,"1971-1980",75.631941621735,21.3675213666667
7,"1981-1990",75.631941621735,21.3675213666667
7,"1991-2000",75.631941621735,21.3675213666667
7,"2001-2010",75.631941621735,21.3675213666667
7,"2011-2020",75.631941621735,21.3675213666667
7,"Inconnu",75.631941621735,21.3675213666667
8,"0-1918",152.234634178888,42.7350427222222
8,"1919-1945",122.56941332319,42.7350427222222
8,"1946-1960",116.616300810679,42.7350427222222
8,"1961-1970",135.038143530584,42.7350427222222
8,"1971-1980",148.001295866129,42.7350427222222
8,"1981-1990",104.15326896487,42.7350427222222
8,"1991-2000",100.8067260001,42.7350427222222
8,"2001-2010",67.80790557671,42.7350427222222
8,"2011-2020",35.8862558650867,42.7350427222222
8,"Inconnu",77.6946281266914,42.7350427222222
9,"0-1918",84.2335846830158,10.6837606833333
9,"1919-1945",111.725002744893,10.6837606833333
9,"1946-1960",89.8554682954894,10.6837606833333
9,"1961-1970",99.9022181965511,10.6837606833333
9,"1971-1980",101.730255752446,10.6837606833333
9,"1981-1990",84.3796818690289,10.6837606833333
9,"1991-2000",82.7602706436961,10.6837606833333
9,"2001-2010",91.2340645438911,10.6837606833333
9,"2011-2020",41.7411267679794,10.6837606833333
9,"Inconnu",102.055488429197,10.6837606833333
10,"0-1918",99.0122694095297,2.13675213666667
10,"1919-1945",120.855858550888,2.13675213666667
10,"1946-1960",109.577236310536,2.13675213666667
10,"1961-1970",102.92854975962,2.13675213666667
10,"1971-1980",98.3711608064164,2.13675213666667
10,"1981-1990",91.7945166770517,2.13675213666667
10,"1991-2000",77.2499191909644,2.13675213666667
10,"2001-2010",92.3698896852458,2.13675213666667
10,"2011-2020",34.32061951047,2.13675213666667
10,"Inconnu",106.042363655665,2.13675213666667
11,"0-1918",26.7013308836244,128.205128194444
11,"1919-1945",26.7013308836244,128.205128194444
11,"1946-1960",26.7013308836244,128.205128194444
11,"1961-1970",26.7013308836244,128.205128194444
11,"1971-1980",26.7013308836244,128.205128194444
11,"1981-1990",26.7013308836244,128.205128194444
11,"1991-2000",26.7013308836244,128.205128194444
11,"2001-2010",26.7013308836244,128.205128194444
11,"2011-2020",26.7013308836244,128.205128194444
11,"Inconnu",12.8570644788575,128.205128194444
12,"0-1918",136.596348164879,128.205128194444
12,"1919-1945",136.596348164879,128.205128194444
12,"1946-1960",136.596348164879,128.205128194444
12,"1961-1970",136.596348164879,128.205128194444
12,"1971-1980",136.596348164879,128.205128194444
12,"1981-1990",136.596348164879,128.205128194444
12,"Inconnu",136.596348164879,128.205128194444
