"genh","genh_fr","thermal_generator","fuel","note"
7500,"Aucune",,,
7501,"Air","direct_air_hvac","thermal_carrier_air",
7510,"Géothermie (générique)","geothermal_generic","geothermal_generic",
7511,"Sonde géothermique","geothermal_borehole","geothermal_borehole",
7512,"Serpentin géothermique","geothermal_field","geothermal_field",
7513,"Eau","direct_water_hvac","thermal_carrier_water",
7520,"Gaz","gas_combustion_condensing","gas","assume condensing boiler by default"
7530,"Mazout","oil_combustion_condensing","fuel_oil","assume condensing boiler by default"
7540,"Bois (générique)","wood_combustion_generic","wood_generic",
7541,"Bois (bûches)","wood_combustion_log","wood_log",
7542,"Bois (granulés - pellets)","wood_combustion_pellet","wood_pellet",
7543,"Bois (bois déchiqueté, copeaux)","wood_combustion_waste","wood_waste",
7550,"Rejets thermiques","heat_exchanger","waste_heat",
7560,"Electricité",,"electricity",
7570,"Soleil (thermique)","solar_thermal","solar",
7580,"Chaleur à distance (gén.)","district_heat_generic","district_heating_generic",
7581,"Chaleur à distance (haute temp.)","district_heat_high_temperature","district_heating_high_temperature",
7582,"Chaleur à distance (basse temp.)",district_heat_low_temperature,"district_heating_low_temperature",
7598,"Indéterminé",,,
7599,"Autre","other",,
