"gwaerzw","gwaerzw_fr","thermal_generator","fuel"
7600,"Pas de gén. de chaleur","none","none"
7610,"Pompe à chaleur","heat_pump_generic","electricity"
7620,"Solaire thermique","solar_thermal","solar"
7630,"Chaudière (générique)","combustion",
7632,"Chaudière standard","combustion",
7634,"Chaudière à condensation","combustion_condensing",
7640,"Couplage chaleur-force","combined_heat_and_power",
7650,"Boiler électrique central","electric_resistance","electricity"
7651,"Petit boiler","electric_resistance","electricity"
7660,"Echangeur de chaleur","heat_exchanger",
7699,"Autre","other",
